"libs\coroutine\src\exceptions.cpp" -Fo"bin.v2\libs\coroutine\build\msvc-14.1\release\address-model-64\link-static\threadapi-win32\threading-multi\exceptions.obj"    -TP /O2 /Ob2 /W3 /GR /MD /Zc:forScope /Zc:wchar_t /favor:blend /wd4675 /EHs -c 
-DBOOST_ALL_NO_LIB=1 
-DBOOST_CHRONO_STATIC_LINK=1 
-DBOOST_COROUTINES_SOURCE 
-DBOOST_DISABLE_ASSERTS 
-DBOOST_SYSTEM_NO_DEPRECATED 
-DBOOST_SYSTEM_STATIC_LINK=1 
-DBOOST_THREAD_BUILD_LIB=1 
-DBOOST_THREAD_USE_LIB=1 
-DBOOST_THREAD_WIN32 
-DNDEBUG 
"-I."