"libs\container\src\synchronized_pool_resource.cpp" -Fo"bin.v2\libs\container\build\msvc-14.1\release\address-model-64\link-static\threading-multi\synchronized_pool_resource.obj"    -TP /O2 /Ob2 /W3 /GR /MD /Zc:forScope /Zc:wchar_t /favor:blend /wd4675 /EHs -c 
-DBOOST_ALL_NO_LIB=1 
-DBOOST_CONTAINER_STATIC_LINK=1 
-DNDEBUG 
"-I."