"libs\test\src\unit_test_monitor.cpp" -Fo"bin.v2\libs\test\build\msvc-14.1\release\address-model-64\link-static\threading-multi\unit_test_monitor.obj"    -TP /O2 /Ob2 /W4 /GR /MD /Zc:forScope /Zc:wchar_t /favor:blend /wd4675 /EHs -wd4671 -wd4673 -c 
-DBOOST_ALL_NO_LIB=1 
-DBOOST_CHRONO_STATIC_LINK=1 
-DBOOST_SYSTEM_NO_DEPRECATED 
-DBOOST_SYSTEM_STATIC_LINK=1 
-DBOOST_TIMER_STATIC_LINK=1 
-DNDEBUG 
"-I."