"libs\chrono\src\thread_clock.cpp" -Fo"bin.v2\libs\chrono\build\msvc-14.1\release\address-model-64\link-static\threading-multi\thread_clock.obj"    -TP /O2 /Ob2 /W4 /GR /MD /Zc:forScope /Zc:wchar_t /favor:blend /wd4675 /EHs /wd4512 -c 
-DBOOST_ALL_NO_LIB=1 
-DBOOST_All_STATIC_LINK=1 
-DBOOST_SYSTEM_NO_DEPRECATED 
-DBOOST_SYSTEM_STATIC_LINK=1 
-DNDEBUG 
"-I."