"libs\filesystem\src\unique_path.cpp" -Fo"bin.v2\libs\filesystem\build\msvc-14.1\release\address-model-64\link-static\threading-multi\unique_path.obj"    -TP /O2 /Ob2 /W3 /GR /MD /Zc:forScope /Zc:wchar_t /favor:blend /wd4675 /EHs -c 
-DBOOST_ALL_NO_LIB=1 
-DBOOST_FILESYSTEM_STATIC_LINK=1 
-DBOOST_SYSTEM_STATIC_LINK=1 
-DNDEBUG 
"-I."