"libs\fiber\src\algo\round_robin.cpp" -Fo"bin.v2\libs\fiber\build\msvc-14.1\release\address-model-64\link-static\threading-multi\algo\round_robin.obj"    -TP /O2 /Ob2 /W3 /GR /MD /Zc:forScope /Zc:wchar_t /favor:blend /wd4675 /EHs -c 
-DBOOST_ALL_NO_LIB=1 
-DBOOST_DISABLE_ASSERTS 
-DBOOST_FIBERS_SOURCE 
-DBOOST_FILESYSTEM_STATIC_LINK=1 
-DBOOST_SYSTEM_STATIC_LINK=1 
-DNDEBUG 
-D_WIN32_WINNT=0x0601 
"-I."