"libs\atomic\src\lockpool.cpp" -Fo"bin.v2\libs\atomic\build\msvc-14.1\release\address-model-64\link-static\threading-multi\lockpool.obj"    -TP /O2 /Ob2 /W3 /GR /MD /Zc:forScope /Zc:wchar_t /favor:blend /wd4675 /EHs -c 
-DBOOST_ALL_NO_LIB=1 
-DBOOST_ATOMIC_SOURCE 
-DBOOST_ATOMIC_STATIC_LINK=1 
-DBOOST_USE_WINDOWS_H 
-DNDEBUG 
-D_WIN32_WINNT=0x0500 
"-I."