"libs\date_time\src\gregorian\date_generators.cpp" -Fo"bin.v2\libs\date_time\build\msvc-14.1\release\link-static\threading-multi\gregorian\date_generators.obj"    -TP /O2 /Ob2 /W3 /GR /MD /Zc:forScope /Zc:wchar_t /wd4675 /EHs -c 
-DBOOST_ALL_NO_LIB=1 
-DDATE_TIME_INLINE 
-DNDEBUG 
"-I."