"libs\wave\src\cpplexer\re2clex\cpp_re.cpp" -Fo"bin.v2\libs\wave\build\msvc-14.1\release\address-model-64\link-static\threading-multi\cpplexer\re2clex\cpp_re.obj"    -TP /O2 /Ob2 /W0 /GR /MD /Zc:forScope /Zc:wchar_t /wd4996 /favor:blend /wd4675 /EHs -c 
-DBOOST_ALL_NO_LIB=1 
-DBOOST_THREAD_USE_LIB=1 
-DNDEBUG 
-D_CRT_SECURE_NO_DEPRECATE 
-D_SCL_SECURE_NO_DEPRECATE 
"-I."