"libs\math\build\..\src\tr1\cyl_bessel_j.cpp" -Fo"bin.v2\libs\math\build\msvc-14.1\release\address-model-64\link-static\threading-multi\cyl_bessel_j.obj"  -Yu"pch.hpp" -Fp"bin.v2\libs\math\build\msvc-14.1\release\address-model-64\link-static\threading-multi\pch.pch" -TP /O2 /Ob2 /W3 /GR /MD /Zc:forScope /Zc:wchar_t /favor:blend /wd4675 /EHs -c 
-DBOOST_ALL_NO_LIB=1 
-DBOOST_BUILD_PCH_ENABLED 
-DNDEBUG 
"-I." 
"-Ilibs\math\src\tr1"